…
``` r
pbmc.markers <- FindAllMarkers(pbmc, only.pos = TRUE, min.pct = 0.25, logfc.threshold = 0.25)
pbmc.markers %>%
  group_by(cluster) %>%
  slice_max(n = 5, order_by = avg_log2FC) -> top5 # ordered by logFC

pbmc.markers %>%
  group_by(cluster) %>%
  slice_min(n = 2, order_by = p_val_adj ) # top 2 ordered by FDR
```

    ## # A tibble: 87 x 7
    ## # Groups:   cluster [13]
    ##        p_val avg_log2FC pct.1 pct.2 p_val_adj cluster gene   
    ##        <dbl>      <dbl> <dbl> <dbl>     <dbl> <fct>   <chr>  
    ##  1 0              0.705 0.999 0.996 0         0       RPL34  
    ##  2 0              0.698 0.999 0.986 0         0       RPS27  
    ##  3 0              0.672 0.999 0.99  0         0       RPL21  
    ##  4 4.22e-256      1.69  0.312 0.018 9.59e-252 1       GZMK   
    ##  5 3.31e-195      1.27  0.919 0.478 7.51e-191 1       IL32   
    ##  6 0              5.25  0.976 0.288 0         2       S100A8 
    ##  7 0              4.73  0.974 0.208 0         2       S100A9 
    ##  8 0              3.82  0.847 0.057 0         2       LYZ    
    ##  9 0              3.81  0.789 0.047 0         2       S100A12
    ## 10 0              3.39  0.905 0.119 0         2       FCN1   
    ## # ... with 77 more rows
…
